%YAML 1.1
%TAG !u! tag:unity3d.com,2011:
--- !u!1 &3605623237807242689
GameObject:
  m_ObjectHideFlags: 0
  m_CorrespondingSourceObject: {fileID: 0}
  m_PrefabInstance: {fileID: 0}
  m_PrefabAsset: {fileID: 0}
  serializedVersion: 6
  m_Component:
  - component: {fileID: 3605623237807242691}
  - component: {fileID: 3605623237807242690}
  - component: {fileID: 3605623237807242684}
  m_Layer: 0
  m_Name: PlayerStatusManager
  m_TagString: Untagged
  m_Icon: {fileID: 0}
  m_NavMeshLayer: 0
  m_StaticEditorFlags: 0
  m_IsActive: 1
--- !u!4 &3605623237807242691
Transform:
  m_ObjectHideFlags: 0
  m_CorrespondingSourceObject: {fileID: 0}
  m_PrefabInstance: {fileID: 0}
  m_PrefabAsset: {fileID: 0}
  m_GameObject: {fileID: 3605623237807242689}
  m_LocalRotation: {x: 0, y: 0, z: 0, w: 1}
  m_LocalPosition: {x: -0.5667858, y: 12.436097, z: 5.6389427}
  m_LocalScale: {x: 1, y: 1, z: 1}
  m_Children: []
  m_Father: {fileID: 0}
  m_RootOrder: 0
  m_LocalEulerAnglesHint: {x: 0, y: 0, z: 0}
--- !u!114 &3605623237807242690
MonoBehaviour:
  m_ObjectHideFlags: 0
  m_CorrespondingSourceObject: {fileID: 0}
  m_PrefabInstance: {fileID: 0}
  m_PrefabAsset: {fileID: 0}
  m_GameObject: {fileID: 3605623237807242689}
  m_Enabled: 1
  m_EditorHideFlags: 0
  m_Script: {fileID: 11500000, guid: 61519d4fab6b3cb4f900b325f8e7e2fb, type: 3}
  m_Name: 
  m_EditorClassIdentifier: 
  healthmax: 25
  healthcurrent: 25
  coinsObtained: 0
  coinsTotal: 0
  treasureObtained: 0
  treasureTotal: 0
  OnShip: 0
  InShipRange: 0
  ShipRespawn: {fileID: 0}
  Boat: {fileID: 0}
  shipManager: {fileID: 0}
  shipInput: {fileID: 0}
  MainCamera: {fileID: 0}
  BoatCamera: {fileID: 0}
  BoatCamera2: {fileID: 0}
  PlayerBody: {fileID: 0}
  playerManager: {fileID: 0}
  playerInput: {fileID: 0}
  healthText: {fileID: 0}
  coinsText: {fileID: 0}
  treasureText: {fileID: 0}
--- !u!114 &3605623237807242684
MonoBehaviour:
  m_ObjectHideFlags: 0
  m_CorrespondingSourceObject: {fileID: 0}
  m_PrefabInstance: {fileID: 0}
  m_PrefabAsset: {fileID: 0}
  m_GameObject: {fileID: 3605623237807242689}
  m_Enabled: 1
  m_EditorHideFlags: 0
  m_Script: {fileID: 11500000, guid: 62899f850307741f2a39c98a8b639597, type: 3}
  m_Name: 
  m_EditorClassIdentifier: 
  m_Actions: {fileID: -944628639613478452, guid: b27b96fb2b2438d4aa4eb77006195bcf, type: 3}
  m_NotificationBehavior: 0
  m_UIInputModule: {fileID: 0}
  m_DeviceLostEvent:
    m_PersistentCalls:
      m_Calls: []
  m_DeviceRegainedEvent:
    m_PersistentCalls:
      m_Calls: []
  m_ControlsChangedEvent:
    m_PersistentCalls:
      m_Calls: []
  m_ActionEvents: []
  m_NeverAutoSwitchControlSchemes: 0
  m_DefaultControlScheme: 
  m_DefaultActionMap: Player
  m_SplitScreenIndex: -1
  m_Camera: {fileID: 0}
